{
  "success": true,
  "data": {
    "name": "Premium Deccan Auto",
    "layoutDetails": [
      {
        "seatId": 5366,
        "column": 1,
        "row": 1,
        "seatNumber": "L1",
        "seatType": "LSL",
        "tier": 1,
        "vertical": false,
        "status": "A",
        "availableFor": "All",
        "fare": 860,
        "serviceTax": 43
      },
      {
        "seatId": 5367,
        "column": 2,
        "row": 1,
        "seatNumber": "L6",
        "seatType": "LSL",
        "tier": 1,
        "vertical": false,
        "status": "A",
        "availableFor": "All",
        "fare": 860,
        "serviceTax": 43
      },
      {
        "seatId": 5368,
        "column": 3,
        "row": 1,
        "seatNumber": "L7",
        "seatType": "LSL",
        "tier": 1,
        "vertical": false,
        "status": "A",
        "availableFor": "All",
        "fare": 860,
        "serviceTax": 43
      },
      {
        "seatId": 5369,
        "column": 4,
        "row": 1,
        "seatNumber": "L12",
        "seatType": "LSL",
        "tier": 1,
        "vertical": false,
        "status": "A",
        "availableFor": "All",
        "fare": 860,
        "serviceTax": 43
      },
      {
        "seatId": 5370,
        "column": 5,
        "row": 1,
        "seatNumber": "L13",
        "seatType": "LSL",
        "tier": 1,
        "vertical": false,
        "status": "A",
        "availableFor": "All",
        "fare": 860,
        "serviceTax": 43
      },
      {
        "seatId": 5371,
        "column": 1,
        "row": 2,
        "seatNumber": "L2",
        "seatType": "LSL",
        "tier": 1,
        "vertical": false,
        "status": "A",
        "availableFor": "All",
        "fare": 860,
        "serviceTax": 43
      },
      {
        "seatId": 5372,
        "column": 2,
        "row": 2,
        "seatNumber": "L5",
        "seatType": "LSL",
        "tier": 1,
        "vertical": false,
        "status": "A",
        "availableFor": "All",
        "fare": 860,
        "serviceTax": 43
      },
      {
        "seatId": 5373,
        "column": 3,
        "row": 2,
        "seatNumber": "L8",
        "seatType": "LSL",
        "tier": 1,
        "vertical": false,
        "status": "A",
        "availableFor": "All",
        "fare": 860,
        "serviceTax": 43
      },
      {
        "seatId": 5374,
        "column": 4,
        "row": 2,
        "seatNumber": "L11",
        "seatType": "LSL",
        "tier": 1,
        "vertical": false,
        "status": "A",
        "availableFor": "All",
        "fare": 860,
        "serviceTax": 43
      },
      {
        "seatId": 5375,
        "column": 5,
        "row": 2,
        "seatNumber": "L14",
        "seatType": "LSL",
        "tier": 1,
        "vertical": false,
        "status": "A",
        "availableFor": "All",
        "fare": 860,
        "serviceTax": 43
      },
      {
        "seatId": 5376,
        "column": 1,
        "row": 4,
        "seatNumber": "L3",
        "seatType": "LSL",
        "tier": 1,
        "vertical": false,
        "status": "A",
        "availableFor": "All",
        "fare": 860,
        "serviceTax": 43
      },
      {
        "seatId": 5377,
        "column": 2,
        "row": 4,
        "seatNumber": "L4",
        "seatType": "LSL",
        "tier": 1,
        "vertical": false,
        "status": "A",
        "availableFor": "All",
        "fare": 860,
        "serviceTax": 43
      },
      {
        "seatId": 5378,
        "column": 3,
        "row": 4,
        "seatNumber": "L9",
        "seatType": "LSL",
        "tier": 1,
        "vertical": false,
        "status": "A",
        "availableFor": "All",
        "fare": 860,
        "serviceTax": 43
      },
      {
        "seatId": 5379,
        "column": 4,
        "row": 4,
        "seatNumber": "L10",
        "seatType": "LSL",
        "tier": 1,
        "vertical": false,
        "status": "A",
        "availableFor": "All",
        "fare": 860,
        "serviceTax": 43
      },
      {
        "seatId": 5380,
        "column": 5,
        "row": 4,
        "seatNumber": "L15",
        "seatType": "LSL",
        "tier": 1,
        "vertical": false,
        "status": "A",
        "availableFor": "All",
        "fare": 860,
        "serviceTax": 43
      },
      {
        "seatId": 5381,
        "column": 1,
        "row": 1,
        "seatNumber": "U1",
        "seatType": "USL",
        "tier": 2,
        "vertical": false,
        "status": "A",
        "availableFor": "All",
        "fare": 860,
        "serviceTax": 43
      },
      {
        "seatId": 5382,
        "column": 2,
        "row": 1,
        "seatNumber": "U6",
        "seatType": "USL",
        "tier": 2,
        "vertical": false,
        "status": "A",
        "availableFor": "All",
        "fare": 860,
        "serviceTax": 43
      },
      {
        "seatId": 5383,
        "column": 3,
        "row": 1,
        "seatNumber": "U7",
        "seatType": "USL",
        "tier": 2,
        "vertical": false,
        "status": "A",
        "availableFor": "All",
        "fare": 860,
        "serviceTax": 43
      },
      {
        "seatId": 5384,
        "column": 4,
        "row": 1,
        "seatNumber": "U12",
        "seatType": "USL",
        "tier": 2,
        "vertical": false,
        "status": "A",
        "availableFor": "All",
        "fare": 860,
        "serviceTax": 43
      },
      {
        "seatId": 5385,
        "column": 5,
        "row": 1,
        "seatNumber": "U13",
        "seatType": "USL",
        "tier": 2,
        "vertical": false,
        "status": "A",
        "availableFor": "All",
        "fare": 860,
        "serviceTax": 43
      },
      {
        "seatId": 5386,
        "column": 1,
        "row": 2,
        "seatNumber": "U2",
        "seatType": "USL",
        "tier": 2,
        "vertical": false,
        "status": "A",
        "availableFor": "All",
        "fare": 860,
        "serviceTax": 43
      },
      {
        "seatId": 5387,
        "column": 2,
        "row": 2,
        "seatNumber": "U5",
        "seatType": "USL",
        "tier": 2,
        "vertical": false,
        "status": "A",
        "availableFor": "All",
        "fare": 860,
        "serviceTax": 43
      },
      {
        "seatId": 5388,
        "column": 3,
        "row": 2,
        "seatNumber": "U8",
        "seatType": "USL",
        "tier": 2,
        "vertical": false,
        "status": "A",
        "availableFor": "All",
        "fare": 860,
        "serviceTax": 43
      },
      {
        "seatId": 5389,
        "column": 4,
        "row": 2,
        "seatNumber": "U11",
        "seatType": "USL",
        "tier": 2,
        "vertical": false,
        "status": "A",
        "availableFor": "All",
        "fare": 860,
        "serviceTax": 43
      },
      {
        "seatId": 5390,
        "column": 5,
        "row": 2,
        "seatNumber": "U14",
        "seatType": "USL",
        "tier": 2,
        "vertical": false,
        "status": "A",
        "availableFor": "All",
        "fare": 860,
        "serviceTax": 43
      },
      {
        "seatId": 5391,
        "column": 1,
        "row": 4,
        "seatNumber": "U3",
        "seatType": "USL",
        "tier": 2,
        "vertical": false,
        "status": "A",
        "availableFor": "All",
        "fare": 860,
        "serviceTax": 43
      },
      {
        "seatId": 5392,
        "column": 2,
        "row": 4,
        "seatNumber": "U4",
        "seatType": "USL",
        "tier": 2,
        "vertical": false,
        "status": "A",
        "availableFor": "All",
        "fare": 860,
        "serviceTax": 43
      },
      {
        "seatId": 5393,
        "column": 3,
        "row": 4,
        "seatNumber": "U9",
        "seatType": "USL",
        "tier": 2,
        "vertical": false,
        "status": "A",
        "availableFor": "All",
        "fare": 860,
        "serviceTax": 43
      },
      {
        "seatId": 5394,
        "column": 4,
        "row": 4,
        "seatNumber": "U10",
        "seatType": "USL",
        "tier": 2,
        "vertical": false,
        "status": "A",
        "availableFor": "All",
        "fare": 860,
        "serviceTax": 43
      },
      {
        "seatId": 5395,
        "column": 5,
        "row": 4,
        "seatNumber": "U15",
        "seatType": "USL",
        "tier": 2,
        "vertical": false,
        "status": "A",
        "availableFor": "All",
        "fare": 860,
        "serviceTax": 43
      },
      {
        "seatId": 5396,
        "column": 6,
        "row": 4,
        "seatNumber": "U16",
        "seatType": "USL",
        "tier": 2,
        "vertical": false,
        "status": "A",
        "availableFor": "All",
        "fare": 860,
        "serviceTax": 43
      },
      {
        "column": 1,
        "row": 3,
        "seatNumber": "-",
        "seatType": "AS",
        "tier": 1,
        "status": "BL",
        "availableFor": "-",
        "serviceTax": 0
      },
      {
        "column": 2,
        "row": 3,
        "seatNumber": "-",
        "seatType": "AS",
        "tier": 1,
        "status": "BL",
        "availableFor": "-",
        "serviceTax": 0
      },
      {
        "column": 3,
        "row": 3,
        "seatNumber": "-",
        "seatType": "AS",
        "tier": 1,
        "status": "BL",
        "availableFor": "-",
        "serviceTax": 0
      },
      {
        "column": 4,
        "row": 3,
        "seatNumber": "-",
        "seatType": "AS",
        "tier": 1,
        "status": "BL",
        "availableFor": "-",
        "serviceTax": 0
      },
      {
        "column": 5,
        "row": 3,
        "seatNumber": "-",
        "seatType": "AS",
        "tier": 1,
        "status": "BL",
        "availableFor": "-",
        "serviceTax": 0
      },
      {
        "column": 1,
        "row": 3,
        "seatNumber": "-",
        "seatType": "AS",
        "tier": 2,
        "status": "BL",
        "availableFor": "-",
        "serviceTax": 0
      },
      {
        "column": 2,
        "row": 3,
        "seatNumber": "-",
        "seatType": "AS",
        "tier": 2,
        "status": "BL",
        "availableFor": "-",
        "serviceTax": 0
      },
      {
        "column": 3,
        "row": 3,
        "seatNumber": "-",
        "seatType": "AS",
        "tier": 2,
        "status": "BL",
        "availableFor": "-",
        "serviceTax": 0
      },
      {
        "column": 4,
        "row": 3,
        "seatNumber": "-",
        "seatType": "AS",
        "tier": 2,
        "status": "BL",
        "availableFor": "-",
        "serviceTax": 0
      },
      {
        "column": 5,
        "row": 3,
        "seatNumber": "-",
        "seatType": "AS",
        "tier": 2,
        "status": "BL",
        "availableFor": "-",
        "serviceTax": 0
      }
    ],
    "totalSeatCount": 31,
    "availableSeatCount": 31,
    "maxRow": 4,
    "maxColumn": 5,
    "tierCount": 2,
    "boardingPoints": [
      {
        "stationPointName": "Egmore -Parveen Travels (Van/Bus Pickup)",
        "addressLine1": "11/5, Kenneth Lane Impala Complex",
        "addressLine2": "Egmore",
        "mobileNumber": "044-28192577 / 9789866999",
        "contactPersonName": "Mr Vinayagam",
        "addressLandMark": "Opp : Egmore Railway Station",
        "day": 1,
        "latitude": 13.077377718,
        "longitude": 80.2623125911,
        "addressPinCode": "600008",
        "stationPointTime": "20:15:00",
        "stationPointId": 36756
      },
      {
        "stationPointName": "Koyembedu New Parveen Terminus",
        "addressLine1": "No.37, School Street, Next to Vijayakanth Kalyanamandapam,",
        "addressLine2": "Koyambedu,Chennai ",
        "mobileNumber": "044-23634899 / 9952945555",
        "contactPersonName": "Staff",
        "addressLandMark": "Near Koyembedu Fly-Over Bridge",
        "day": 1,
        "latitude": 13.073929,
        "longitude": 80.2005741186,
        "addressPinCode": "600106",
        "stationPointTime": "21:15:00",
        "stationPointId": 36757
      },
      {
        "stationPointName": "Perungalathur",
        "addressLine1": "No:1, Kamatchi Complex,GST Rd",
        "addressLine2": "Railway Station Opp,Perungalathur,Chennai",
        "mobileNumber": "044-49007555, 22392565/9003278699",
        "contactPersonName": "Mr Muruganantham",
        "addressLandMark": "Parveen Travels",
        "day": 1,
        "latitude": 12.9056427537,
        "longitude": 80.0962040126,
        "addressPinCode": "600063",
        "stationPointTime": "22:00:00",
        "stationPointId": 36758
      },
      {
        "stationPointName": "SRM University",
        "addressLine1": "Srm University",
        "addressLine2": "Main Entrance",
        "mobileNumber": "044-49007555, 22392565/9003278699",
        "contactPersonName": "Staff",
        "addressLandMark": "Srm University",
        "day": 1,
        "latitude": 12.8262187339,
        "longitude": 80.0414762199,
        "addressPinCode": "600000",
        "stationPointTime": "22:15:00",
        "stationPointId": 36759
      },
      {
        "stationPointName": "Mahendra City",
        "addressLine1": "Mahendra City",
        "addressLine2": "Main Entrance",
        "mobileNumber": "044-49007555, 22392565/9003278699",
        "contactPersonName": "Staffs",
        "addressLandMark": "Mahendra City",
        "day": 1,
        "latitude": 12.8138099603,
        "longitude": 80.0323104858,
        "addressPinCode": "600000",
        "stationPointTime": "22:25:00",
        "stationPointId": 36760
      },
      {
        "stationPointName": "Chengalpat Toll Plaza",
        "addressLine1": "Chengalpat Toll Plaza",
        "addressLine2": "Chengalpat Toll Plaza",
        "mobileNumber": "044-22392565,9003278699",
        "contactPersonName": "Staff",
        "addressLandMark": "Chengalpat Toll Plaza",
        "day": 1,
        "latitude": 12.7038760114,
        "longitude": 79.9725855596,
        "addressPinCode": "600000",
        "stationPointTime": "22:45:00",
        "stationPointId": 36761
      }
    ],
    "droppingPoints": [
      {
        "stationPointName": "Coimbatore Omni Bus Stand",
        "addressLine1": "No. 4, Omni Bus Stand,",
        "addressLine2": "Gp Theater (Opp),Coimbatore",
        "mobileNumber": "9500199946,0422 4212219",
        "contactPersonName": "Staff",
        "addressLandMark": "GP Theater (Opp)",
        "day": 2,
        "latitude": 25,
        "longitude": 13,
        "addressPinCode": "641012",
        "stationPointTime": "06:30:00",
        "stationPointId": 36763
      }
    ]
  }
}