{
  "success": true,
  "data": {
    "name": "Mercedes Benz",
    "layoutDetails": [
      {
        "seatId": 899,
        "column": 2,
        "row": 1,
        "seatNumber": "V1",
        "seatType": "SS",
        "tier": 1,
        "vertical": false,
        "status": "A",
        "availableFor": "All",
        "fare": 656,
        "serviceTax": 32.8
      },
      {
        "seatId": 900,
        "column": 3,
        "row": 1,
        "seatNumber": "01",
        "seatType": "SS",
        "tier": 1,
        "vertical": false,
        "status": "A",
        "availableFor": "All",
        "fare": 656,
        "serviceTax": 32.8
      },
      {
        "seatId": 901,
        "column": 4,
        "row": 1,
        "seatNumber": "08",
        "seatType": "SS",
        "tier": 1,
        "vertical": false,
        "status": "A",
        "availableFor": "All",
        "fare": 656,
        "serviceTax": 32.8
      },
      {
        "seatId": 902,
        "column": 5,
        "row": 1,
        "seatNumber": "09",
        "seatType": "SS",
        "tier": 1,
        "vertical": false,
        "status": "A",
        "availableFor": "All",
        "fare": 656,
        "serviceTax": 32.8
      },
      {
        "seatId": 903,
        "column": 6,
        "row": 1,
        "seatNumber": "16",
        "seatType": "SS",
        "tier": 1,
        "vertical": false,
        "status": "A",
        "availableFor": "All",
        "fare": 656,
        "serviceTax": 32.8
      },
      {
        "seatId": 904,
        "column": 7,
        "row": 1,
        "seatNumber": "17",
        "seatType": "SS",
        "tier": 1,
        "vertical": false,
        "status": "A",
        "availableFor": "All",
        "fare": 656,
        "serviceTax": 32.8
      },
      {
        "seatId": 905,
        "column": 8,
        "row": 1,
        "seatNumber": "24",
        "seatType": "SS",
        "tier": 1,
        "vertical": false,
        "status": "A",
        "availableFor": "All",
        "fare": 656,
        "serviceTax": 32.8
      },
      {
        "seatId": 906,
        "column": 9,
        "row": 1,
        "seatNumber": "25",
        "seatType": "SS",
        "tier": 1,
        "vertical": false,
        "status": "A",
        "availableFor": "All",
        "fare": 656,
        "serviceTax": 32.8
      },
      {
        "seatId": 907,
        "column": 10,
        "row": 1,
        "seatNumber": "32",
        "seatType": "SS",
        "tier": 1,
        "vertical": false,
        "status": "A",
        "availableFor": "All",
        "fare": 656,
        "serviceTax": 32.8
      },
      {
        "seatId": 908,
        "column": 11,
        "row": 1,
        "seatNumber": "33",
        "seatType": "SS",
        "tier": 1,
        "vertical": false,
        "status": "A",
        "availableFor": "All",
        "fare": 656,
        "serviceTax": 32.8
      },
      {
        "seatId": 909,
        "column": 12,
        "row": 1,
        "seatNumber": "40",
        "seatType": "SS",
        "tier": 1,
        "vertical": false,
        "status": "A",
        "availableFor": "All",
        "fare": 656,
        "serviceTax": 32.8
      },
      {
        "seatId": 910,
        "column": 2,
        "row": 2,
        "seatNumber": "V2",
        "seatType": "SS",
        "tier": 1,
        "vertical": false,
        "status": "A",
        "availableFor": "All",
        "fare": 656,
        "serviceTax": 32.8
      },
      {
        "seatId": 911,
        "column": 3,
        "row": 2,
        "seatNumber": "02",
        "seatType": "SS",
        "tier": 1,
        "vertical": false,
        "status": "A",
        "availableFor": "All",
        "fare": 656,
        "serviceTax": 32.8
      },
      {
        "seatId": 912,
        "column": 4,
        "row": 2,
        "seatNumber": "07",
        "seatType": "SS",
        "tier": 1,
        "vertical": false,
        "status": "A",
        "availableFor": "All",
        "fare": 656,
        "serviceTax": 32.8
      },
      {
        "seatId": 913,
        "column": 5,
        "row": 2,
        "seatNumber": "10",
        "seatType": "SS",
        "tier": 1,
        "vertical": false,
        "status": "A",
        "availableFor": "All",
        "fare": 656,
        "serviceTax": 32.8
      },
      {
        "seatId": 914,
        "column": 6,
        "row": 2,
        "seatNumber": "15",
        "seatType": "SS",
        "tier": 1,
        "vertical": false,
        "status": "A",
        "availableFor": "All",
        "fare": 656,
        "serviceTax": 32.8
      },
      {
        "seatId": 915,
        "column": 7,
        "row": 2,
        "seatNumber": "18",
        "seatType": "SS",
        "tier": 1,
        "vertical": false,
        "status": "A",
        "availableFor": "All",
        "fare": 656,
        "serviceTax": 32.8
      },
      {
        "seatId": 916,
        "column": 8,
        "row": 2,
        "seatNumber": "23",
        "seatType": "SS",
        "tier": 1,
        "vertical": false,
        "status": "A",
        "availableFor": "All",
        "fare": 656,
        "serviceTax": 32.8
      },
      {
        "seatId": 917,
        "column": 9,
        "row": 2,
        "seatNumber": "26",
        "seatType": "SS",
        "tier": 1,
        "vertical": false,
        "status": "A",
        "availableFor": "All",
        "fare": 656,
        "serviceTax": 32.8
      },
      {
        "seatId": 918,
        "column": 10,
        "row": 2,
        "seatNumber": "31",
        "seatType": "SS",
        "tier": 1,
        "vertical": false,
        "status": "A",
        "availableFor": "All",
        "fare": 656,
        "serviceTax": 32.8
      },
      {
        "seatId": 919,
        "column": 11,
        "row": 2,
        "seatNumber": "34",
        "seatType": "SS",
        "tier": 1,
        "vertical": false,
        "status": "A",
        "availableFor": "All",
        "fare": 656,
        "serviceTax": 32.8
      },
      {
        "seatId": 920,
        "column": 12,
        "row": 2,
        "seatNumber": "39",
        "seatType": "SS",
        "tier": 1,
        "vertical": false,
        "status": "A",
        "availableFor": "All",
        "fare": 656,
        "serviceTax": 32.8
      },
      {
        "seatId": 921,
        "column": 2,
        "row": 4,
        "seatNumber": "V3",
        "seatType": "SS",
        "tier": 1,
        "vertical": false,
        "status": "A",
        "availableFor": "All",
        "fare": 656,
        "serviceTax": 32.8
      },
      {
        "seatId": 922,
        "column": 3,
        "row": 4,
        "seatNumber": "03",
        "seatType": "SS",
        "tier": 1,
        "vertical": false,
        "status": "A",
        "availableFor": "All",
        "fare": 656,
        "serviceTax": 32.8
      },
      {
        "seatId": 923,
        "column": 4,
        "row": 4,
        "seatNumber": "06",
        "seatType": "SS",
        "tier": 1,
        "vertical": false,
        "status": "A",
        "availableFor": "All",
        "fare": 656,
        "serviceTax": 32.8
      },
      {
        "seatId": 924,
        "column": 5,
        "row": 4,
        "seatNumber": "11",
        "seatType": "SS",
        "tier": 1,
        "vertical": false,
        "status": "A",
        "availableFor": "All",
        "fare": 656,
        "serviceTax": 32.8
      },
      {
        "seatId": 925,
        "column": 6,
        "row": 4,
        "seatNumber": "14",
        "seatType": "SS",
        "tier": 1,
        "vertical": false,
        "status": "A",
        "availableFor": "All",
        "fare": 656,
        "serviceTax": 32.8
      },
      {
        "seatId": 926,
        "column": 7,
        "row": 4,
        "seatNumber": "19",
        "seatType": "SS",
        "tier": 1,
        "vertical": false,
        "status": "A",
        "availableFor": "All",
        "fare": 656,
        "serviceTax": 32.8
      },
      {
        "seatId": 927,
        "column": 8,
        "row": 4,
        "seatNumber": "22",
        "seatType": "SS",
        "tier": 1,
        "vertical": false,
        "status": "A",
        "availableFor": "All",
        "fare": 656,
        "serviceTax": 32.8
      },
      {
        "seatId": 928,
        "column": 9,
        "row": 4,
        "seatNumber": "27",
        "seatType": "SS",
        "tier": 1,
        "vertical": false,
        "status": "A",
        "availableFor": "All",
        "fare": 656,
        "serviceTax": 32.8
      },
      {
        "seatId": 929,
        "column": 10,
        "row": 4,
        "seatNumber": "30",
        "seatType": "SS",
        "tier": 1,
        "vertical": false,
        "status": "A",
        "availableFor": "All",
        "fare": 656,
        "serviceTax": 32.8
      },
      {
        "seatId": 930,
        "column": 11,
        "row": 4,
        "seatNumber": "35",
        "seatType": "SS",
        "tier": 1,
        "vertical": false,
        "status": "A",
        "availableFor": "All",
        "fare": 656,
        "serviceTax": 32.8
      },
      {
        "seatId": 931,
        "column": 12,
        "row": 4,
        "seatNumber": "38",
        "seatType": "SS",
        "tier": 1,
        "vertical": false,
        "status": "A",
        "availableFor": "All",
        "fare": 656,
        "serviceTax": 32.8
      },
      {
        "seatId": 932,
        "column": 2,
        "row": 5,
        "seatNumber": "V4",
        "seatType": "SS",
        "tier": 1,
        "vertical": false,
        "status": "A",
        "availableFor": "All",
        "fare": 656,
        "serviceTax": 32.8
      },
      {
        "seatId": 933,
        "column": 3,
        "row": 5,
        "seatNumber": "04",
        "seatType": "SS",
        "tier": 1,
        "vertical": false,
        "status": "A",
        "availableFor": "All",
        "fare": 656,
        "serviceTax": 32.8
      },
      {
        "seatId": 934,
        "column": 4,
        "row": 5,
        "seatNumber": "05",
        "seatType": "SS",
        "tier": 1,
        "vertical": false,
        "status": "A",
        "availableFor": "All",
        "fare": 656,
        "serviceTax": 32.8
      },
      {
        "seatId": 935,
        "column": 5,
        "row": 5,
        "seatNumber": "12",
        "seatType": "SS",
        "tier": 1,
        "vertical": false,
        "status": "A",
        "availableFor": "All",
        "fare": 656,
        "serviceTax": 32.8
      },
      {
        "seatId": 936,
        "column": 6,
        "row": 5,
        "seatNumber": "13",
        "seatType": "SS",
        "tier": 1,
        "vertical": false,
        "status": "A",
        "availableFor": "All",
        "fare": 656,
        "serviceTax": 32.8
      },
      {
        "seatId": 937,
        "column": 7,
        "row": 5,
        "seatNumber": "20",
        "seatType": "SS",
        "tier": 1,
        "vertical": false,
        "status": "A",
        "availableFor": "All",
        "fare": 656,
        "serviceTax": 32.8
      },
      {
        "seatId": 938,
        "column": 8,
        "row": 5,
        "seatNumber": "21",
        "seatType": "SS",
        "tier": 1,
        "vertical": false,
        "status": "A",
        "availableFor": "All",
        "fare": 656,
        "serviceTax": 32.8
      },
      {
        "seatId": 939,
        "column": 9,
        "row": 5,
        "seatNumber": "28",
        "seatType": "SS",
        "tier": 1,
        "vertical": false,
        "status": "A",
        "availableFor": "All",
        "fare": 656,
        "serviceTax": 32.8
      },
      {
        "seatId": 940,
        "column": 10,
        "row": 5,
        "seatNumber": "29",
        "seatType": "SS",
        "tier": 1,
        "vertical": false,
        "status": "A",
        "availableFor": "All",
        "fare": 656,
        "serviceTax": 32.8
      },
      {
        "seatId": 941,
        "column": 11,
        "row": 5,
        "seatNumber": "36",
        "seatType": "SS",
        "tier": 1,
        "vertical": false,
        "status": "A",
        "availableFor": "All",
        "fare": 656,
        "serviceTax": 32.8
      },
      {
        "seatId": 942,
        "column": 12,
        "row": 5,
        "seatNumber": "37",
        "seatType": "SS",
        "tier": 1,
        "vertical": false,
        "status": "A",
        "availableFor": "All",
        "fare": 656,
        "serviceTax": 32.8
      },
      {
        "column": 1,
        "row": 1,
        "seatNumber": "-",
        "seatType": "AS",
        "tier": 1,
        "status": "BL",
        "availableFor": "-",
        "serviceTax": 0
      },
      {
        "column": 1,
        "row": 2,
        "seatNumber": "-",
        "seatType": "AS",
        "tier": 1,
        "status": "BL",
        "availableFor": "-",
        "serviceTax": 0
      },
      {
        "column": 1,
        "row": 3,
        "seatNumber": "-",
        "seatType": "AS",
        "tier": 1,
        "status": "BL",
        "availableFor": "-",
        "serviceTax": 0
      },
      {
        "column": 1,
        "row": 4,
        "seatNumber": "-",
        "seatType": "AS",
        "tier": 1,
        "status": "BL",
        "availableFor": "-",
        "serviceTax": 0
      },
      {
        "column": 1,
        "row": 5,
        "seatNumber": "-",
        "seatType": "AS",
        "tier": 1,
        "status": "BL",
        "availableFor": "-",
        "serviceTax": 0
      },
      {
        "column": 2,
        "row": 3,
        "seatNumber": "-",
        "seatType": "AS",
        "tier": 1,
        "status": "BL",
        "availableFor": "-",
        "serviceTax": 0
      },
      {
        "column": 3,
        "row": 3,
        "seatNumber": "-",
        "seatType": "AS",
        "tier": 1,
        "status": "BL",
        "availableFor": "-",
        "serviceTax": 0
      },
      {
        "column": 4,
        "row": 3,
        "seatNumber": "-",
        "seatType": "AS",
        "tier": 1,
        "status": "BL",
        "availableFor": "-",
        "serviceTax": 0
      },
      {
        "column": 5,
        "row": 3,
        "seatNumber": "-",
        "seatType": "AS",
        "tier": 1,
        "status": "BL",
        "availableFor": "-",
        "serviceTax": 0
      },
      {
        "column": 6,
        "row": 3,
        "seatNumber": "-",
        "seatType": "AS",
        "tier": 1,
        "status": "BL",
        "availableFor": "-",
        "serviceTax": 0
      },
      {
        "column": 7,
        "row": 3,
        "seatNumber": "-",
        "seatType": "AS",
        "tier": 1,
        "status": "BL",
        "availableFor": "-",
        "serviceTax": 0
      },
      {
        "column": 8,
        "row": 3,
        "seatNumber": "-",
        "seatType": "AS",
        "tier": 1,
        "status": "BL",
        "availableFor": "-",
        "serviceTax": 0
      },
      {
        "column": 9,
        "row": 3,
        "seatNumber": "-",
        "seatType": "AS",
        "tier": 1,
        "status": "BL",
        "availableFor": "-",
        "serviceTax": 0
      },
      {
        "column": 10,
        "row": 3,
        "seatNumber": "-",
        "seatType": "AS",
        "tier": 1,
        "status": "BL",
        "availableFor": "-",
        "serviceTax": 0
      },
      {
        "column": 11,
        "row": 3,
        "seatNumber": "-",
        "seatType": "AS",
        "tier": 1,
        "status": "BL",
        "availableFor": "-",
        "serviceTax": 0
      },
      {
        "column": 12,
        "row": 3,
        "seatNumber": "-",
        "seatType": "AS",
        "tier": 1,
        "status": "BL",
        "availableFor": "-",
        "serviceTax": 0
      }
    ],
    "totalSeatCount": 48,
    "availableSeatCount": 44,
    "maxRow": 5,
    "maxColumn": 12,
    "tierCount": 1,
    "boardingPoints": [
      {
        "stationPointName": "Adyar -Parveen Travels (Van/Bus Pickup)",
        "addressLine1": "No 39 Shasthri Nagar 1st Avenue ",
        "addressLine2": "Behind BSNL Telephone Exchange",
        "mobileNumber": "9840962122 ",
        "contactPersonName": "Thazeem",
        "addressLandMark": "Beside HDFC Bank",
        "day": 1,
        "latitude": 13.0010309152,
        "longitude": 80.2575471327,
        "addressPinCode": "600020",
        "stationPointTime": "21:30:00",
        "stationPointId": 27592
      },

      {
        "stationPointName": "Sholinganallur -Mohamed Sathak College",
        "addressLine1": "-Mohamed Sathak ,Medavakkam Road",
        "addressLine2": "Sholinganallur",
        "mobileNumber": "9840962122",
        "contactPersonName": "Staff",
        "addressLandMark": "College Entrance",
        "day": 1,
        "latitude": 12.8998205,
        "longitude": 80.2215174,
        "addressPinCode": "600119",
        "stationPointTime": "22:20:00",
        "stationPointId": 29573
      },
      {
        "stationPointName": "Oragadam Junction",
        "addressLine1": "Bharat Petroleum Petrol Bunk",
        "addressLine2": "Oragadam,Tamil Nadu",
        "mobileNumber": "044 -22392565/9003278699",
        "contactPersonName": "Staff",
        "addressLandMark": "Bharat Petroleum Petrol Bunk, Oragadam Flyover",
        "day": 1,
        "latitude": 12.8504659,
        "longitude": 79.9406121,
        "addressPinCode": "631604",
        "stationPointTime": "23:40:00",
        "stationPointId": 29583
      }
    ],
    "droppingPoints": [
      {
        "stationPointName": "Madiwala",
        "addressLine1": "No 06 Hosur Main Road Near Ayyappaswamy Temple",
        "addressLine2": "Madiwala Banglore",
        "mobileNumber": "09901999118  080-42112796",
        "contactPersonName": "Staff",
        "addressLandMark": "Opp to Bajaj Showroom",
        "day": 2,
        "latitude": 12.9226373,
        "longitude": 77.6174442,
        "addressPinCode": "560068",
        "stationPointTime": "05:10:00",
        "stationPointId": 1805
      },
      {
        "stationPointName": "Kalasipalayam",
        "addressLine1": "24 Anand Arcad Albert Victor Road",
        "addressLine2": "Kalasipalayam  Bangalore",
        "mobileNumber": "09901999118  080-42112796",
        "contactPersonName": "Staff",
        "addressLandMark": "State Bank Of India Bulding",
        "day": 2,
        "latitude": 12.9594549,
        "longitude": 77.5805685,
        "addressPinCode": "560068",
        "stationPointTime": "05:20:00",
        "stationPointId": 28860
      }

    ]
  }
}