{
  "success": true,
  "data": {
    "tickets": [
      {
        "boardingPoint": {
          "contactPersonName": "Staff",
          "mobileNumber": "9840962122",
          "stationPointName": "HCL Technologies",
          "addressLandMark": "HCL Bus Stand",
          "addressLine1": "HCL Technologies,Elcot Sez",
          "addressLine2": "Sholinganallur, Chenna",
          "addressPinCode": "600119",
          "pointName": "HCL Technologies",
          "latitude": 12.9008588,
          "longitude": 80.2164777
        },
        "boardingPointTime": "22:25:00",
        "busDepTime": "23:30:00",
        "droppingPoint": {
          "contactPersonName": "Staff",
          "mobileNumber": "9901999118,080-42112796",
          "stationPointName": "Shanthi Nagar",
          "addressLandMark": "Opp Reliance Market",
          "addressLine1": "Shanthi Nagar Bus Stand In-Front Of Reliance Market",
          "addressLine2": "Shanthi Nagar, Bangalore",
          "addressPinCode": "560000",
          "pointName": "Shanthi Nagar",
          "latitude": 12,
          "longitude": 77
        },
        "droppingPointTime": "05:15:00",
        "email": "anusuya@gmail.com",
        "busType": "2+2 Single Tier Semi Sleeper Multiaxle A/C Mercedes Benz",
        "operatorName": "Parveen Travels",
        "fromStation": "Chennai",
        "toStation": "Bangalore",
        "mobile": "9940177214",
        "pnr": "BSPT530458203",
        "ticketStatus": "BOOKED",
        "operatorMobile": "8056111119",
        "travelDate": "2017-10-28",
        "boardingDate": "2017-10-28",
        "cancelTerms": [
          "Between 0 HOUR and 3 HOUR - 90% Deduction",
          "Between 3 HOUR and 4 HOUR - 60% Deduction",
          "Between 4 HOUR and 12 HOUR - 30% Deduction",
          "Between 12 HOUR and Any Time  - 15% Deduction"
        ],
        "cancelCharges": [
          {
            "cancelCharge": 656,
            "serviceTaxAmount": 33
          }
        ],
        "passengerDetails": [
          {
            "name": "anu",
            "age": 25,
            "gender": "MALE",
            "seatFare": 656,
            "seatNbr": "01",
            "seatType": "SEMI_SLEEPER",
            "ticketStatus": "BOOKED",
            "discount": 0
          }
        ]
      },
      {
        "boardingPoint": {
          "contactPersonName": "Staff",
          "mobileNumber": "9840962122",
          "stationPointName": "HCL Technologies",
          "addressLandMark": "HCL Bus Stand",
          "addressLine1": "HCL Technologies,Elcot Sez",
          "addressLine2": "Sholinganallur, Chenna",
          "addressPinCode": "600119",
          "pointName": "HCL Technologies",
          "latitude": 12.9008588,
          "longitude": 80.2164777
        },
        "boardingPointTime": "22:25:00",
        "busDepTime": "23:30:00",
        "droppingPoint": {
          "contactPersonName": "Staff",
          "mobileNumber": "9901999118,080-42112796",
          "stationPointName": "Shanthi Nagar",
          "addressLandMark": "Opp Reliance Market",
          "addressLine1": "Shanthi Nagar Bus Stand In-Front Of Reliance Market",
          "addressLine2": "Shanthi Nagar, Bangalore",
          "addressPinCode": "560000",
          "pointName": "Shanthi Nagar",
          "latitude": 12,
          "longitude": 77
        },
        "droppingPointTime": "05:15:00",
        "email": "anusuya@gmail.com",
        "busType": "2+2 Single Tier Semi Sleeper Multiaxle A/C Mercedes Benz",
        "operatorName": "Parveen Travels",
        "fromStation": "Chennai",
        "toStation": "Bangalore",
        "mobile": "9940177214",
        "pnr": "BSPT140265268",
        "ticketStatus": "CANCELLED",
        "operatorMobile": "8056111119",
        "travelDate": "2017-10-30",
        "boardingDate": "2017-10-30",
        "cancelTerms": [
          "Between 0 HOUR and 3 HOUR - 90% Deduction",
          "Between 3 HOUR and 4 HOUR - 60% Deduction",
          "Between 4 HOUR and 12 HOUR - 30% Deduction",
          "Between 12 HOUR and Any Time  - 15% Deduction"
        ],
        "cancelCharges": [
          {
            "cancelCharge": 656,
            "serviceTaxAmount": 33
          }
        ],
        "passengerDetails": [
          {
            "name": "anu",
            "age": 25,
            "gender": "MALE",
            "seatFare": 656,
            "seatNbr": "01",
            "seatType": "SEMI_SLEEPER",
            "ticketStatus": "CANCELLED",
            "discount": 0
          }
        ]
      },
      {
        "boardingPoint": {
          "contactPersonName": "Staff",
          "mobileNumber": "9840962122",
          "stationPointName": "HCL Technologies",
          "addressLandMark": "HCL Bus Stand",
          "addressLine1": "HCL Technologies,Elcot Sez",
          "addressLine2": "Sholinganallur, Chenna",
          "addressPinCode": "600119",
          "pointName": "HCL Technologies",
          "latitude": 12.9008588,
          "longitude": 80.2164777
        },
        "boardingPointTime": "22:25:00",
        "busDepTime": "23:30:00",
        "droppingPoint": {
          "contactPersonName": "Staff",
          "mobileNumber": "9901999118,080-42112796",
          "stationPointName": "Shanthi Nagar",
          "addressLandMark": "Opp Reliance Market",
          "addressLine1": "Shanthi Nagar Bus Stand In-Front Of Reliance Market",
          "addressLine2": "Shanthi Nagar, Bangalore",
          "addressPinCode": "560000",
          "pointName": "Shanthi Nagar",
          "latitude": 12,
          "longitude": 77
        },
        "droppingPointTime": "05:15:00",
        "email": "anusuya@gmail.com",
        "busType": "2+2 Single Tier Semi Sleeper Multiaxle A/C Mercedes Benz",
        "operatorName": "Parveen Travels",
        "fromStation": "Chennai",
        "toStation": "Bangalore",
        "mobile": "9940177214",
        "pnr": "BSPT418485973",
        "ticketStatus": "CANCELLED",
        "operatorMobile": "8056111119",
        "travelDate": "2017-11-04",
        "boardingDate": "2017-11-04",
        "cancelTerms": [
          "Between 0 HOUR and 3 HOUR - 90% Deduction",
          "Between 3 HOUR and 4 HOUR - 60% Deduction",
          "Between 4 HOUR and 12 HOUR - 30% Deduction",
          "Between 12 HOUR and Any Time  - 15% Deduction"
        ],
        "cancelCharges": [
          {
            "cancelCharge": 656,
            "serviceTaxAmount": 33
          }
        ],
        "passengerDetails": [
          {
            "name": "anu",
            "age": 25,
            "gender": "MALE",
            "seatFare": 656,
            "seatNbr": "17",
            "seatType": "SEMI_SLEEPER",
            "ticketStatus": "CANCELLED",
            "discount": 0
          }
        ]
      }
    ]
  }
}