{
  "success": true,
  "data": {
    "stations": [
      {
        "name": "Aandalur",
        "id": 244
      },
      {
        "name": "Aluva",
        "id": 165
      },
      {
        "name": "Angamaly",
        "id": 166
      },
      {
        "name": "Annavaram Bypass",
        "id": 258
      },
      {
        "name": "Araku Valley Packages",
        "id": 263
      },
      {
        "name": "Araku Valley Tour Packages",
        "id": 262
      },
      {
        "name": "Ariyalur",
        "id": 237
      },
      {
        "name": "Athiyuthu",
        "id": 158
      },
      {
        "name": "Avinashi",
        "id": 83
      },
      {
        "name": "Ayyam Petai",
        "id": 48
      },
      {
        "name": "Balaramapuram",
        "id": 239
      },
      {
        "name": "Bangalore",
        "id": 42
      },
      {
        "name": "Bathalagundu",
        "id": 53
      },
      {
        "name": "Bhavani bypass",
        "id": 104
      },
      {
        "name": "Calicut",
        "id": 78
      },
      {
        "name": "Chalakudi",
        "id": 84
      },
      {
        "name": "Chennai",
        "id": 43
      },
      {
        "name": "Cherpulassery",
        "id": 232
      },
      {
        "name": "Chidambaram",
        "id": 149
      },
      {
        "name": "Chittarkottai",
        "id": 159
      },
      {
        "name": "Cochin",
        "id": 85
      },
      {
        "name": "Coimbatore",
        "id": 81
      },
      {
        "name": "Coonoor  ",
        "id": 140
      },
      {
        "name": "Cumbam",
        "id": 242
      },
      {
        "name": "Devakottai",
        "id": 156
      },
      {
        "name": "Devipattinam",
        "id": 148
      },
      {
        "name": "Dharapuram",
        "id": 267
      },
      {
        "name": "Dindugal ",
        "id": 215
      },
      {
        "name": "Dindugal Bypass",
        "id": 52
      },
      {
        "name": "Edappally",
        "id": 167
      },
      {
        "name": "Eluru",
        "id": 249
      },
      {
        "name": "Ernakulam",
        "id": 86
      },
      {
        "name": "Erode",
        "id": 107
      },
      {
        "name": "Erode Bypass",
        "id": 79
      },
      {
        "name": "Ervadi",
        "id": 127
      },
      {
        "name": "Ervadi-Nellai",
        "id": 97
      },
      {
        "name": "Gobichettipalayam",
        "id": 136
      },
      {
        "name": "Gudur",
        "id": 174
      },
      {
        "name": "Gudur ByPass",
        "id": 199
      },
      {
        "name": "Guntur",
        "id": 176
      },
      {
        "name": "Hosur",
        "id": 47
      },
      {
        "name": "Hyderabad",
        "id": 112
      },
      {
        "name": "Idaikal",
        "id": 65
      },
      {
        "name": "Ilayangudi",
        "id": 128
      },
      {
        "name": "Kadayanallur",
        "id": 64
      },
      {
        "name": "Kaikatti",
        "id": 153
      },
      {
        "name": "Kalamassery",
        "id": 168
      },
      {
        "name": "Kalayarkoil",
        "id": 216
      },
      {
        "name": "Kaliyakavilai",
        "id": 169
      },
      {
        "name": "Kallal",
        "id": 217
      },
      {
        "name": "Kanchipuram",
        "id": 229
      },
      {
        "name": "Kanyakumari",
        "id": 94
      },
      {
        "name": "Karaikal",
        "id": 119
      },
      {
        "name": "Karaikudi",
        "id": 120
      },
      {
        "name": "Karur",
        "id": 50
      },
      {
        "name": "Kavali",
        "id": 248
      },
      {
        "name": "Kavalkinaru",
        "id": 218
      },
      {
        "name": "Kazhakottam",
        "id": 241
      },
      {
        "name": "Keelakarai",
        "id": 121
      },
      {
        "name": "Kodaikanal",
        "id": 55
      },
      {
        "name": "Kondotty",
        "id": 71
      },
      {
        "name": "Kottakkal",
        "id": 256
      },
      {
        "name": "Kovilpatti",
        "id": 110
      },
      {
        "name": "Kovilpatti - New Bus Stand",
        "id": 98
      },
      {
        "name": "Kozhikode",
        "id": 259
      },
      {
        "name": "Krishnagiri",
        "id": 72
      },
      {
        "name": "Krishnan Kovil",
        "id": 223
      },
      {
        "name": "Kulithalai",
        "id": 117
      },
      {
        "name": "Kumbakonam",
        "id": 114
      },
      {
        "name": "Madugapati",
        "id": 144
      },
      {
        "name": "Madurai",
        "id": 46
      },
      {
        "name": "Malapuram",
        "id": 73
      },
      {
        "name": "Manaparai",
        "id": 246
      },
      {
        "name": "Mandapam",
        "id": 160
      },
      {
        "name": "Manjeri",
        "id": 255
      },
      {
        "name": "Mannarkad",
        "id": 74
      },
      {
        "name": "Maravamangalam",
        "id": 219
      },
      {
        "name": "Marthandam",
        "id": 170
      },
      {
        "name": "Mayiladuthurai",
        "id": 150
      },
      {
        "name": "Mellur",
        "id": 59
      },
      {
        "name": "Mettupalayam",
        "id": 139
      },
      {
        "name": "Mundur",
        "id": 233
      },
      {
        "name": "Nagapattinam",
        "id": 122
      },
      {
        "name": "Nagarjuna Sagar",
        "id": 177
      },
      {
        "name": "Nagercoil",
        "id": 99
      },
      {
        "name": "Nagoor",
        "id": 123
      },
      {
        "name": "Naidupet Bypass",
        "id": 200
      },
      {
        "name": "Naidupeta",
        "id": 178
      },
      {
        "name": "Namakkal",
        "id": 236
      },
      {
        "name": "Nellore",
        "id": 181
      },
      {
        "name": "Nellore Bypass",
        "id": 214
      },
      {
        "name": "Neyyattinkara ",
        "id": 240
      },
      {
        "name": "Oddanchatram",
        "id": 224
      },
      {
        "name": "Ongole",
        "id": 182
      },
      {
        "name": "Ongole Bypass",
        "id": 183
      },
      {
        "name": "Ooty",
        "id": 141
      },
      {
        "name": "Pabanasam",
        "id": 115
      },
      {
        "name": "Palakkad",
        "id": 69
      },
      {
        "name": "Palakkad Bypass",
        "id": 87
      },
      {
        "name": "Palani",
        "id": 190
      },
      {
        "name": "Pallapatti",
        "id": 118
      },
      {
        "name": "Pallathur",
        "id": 157
      },
      {
        "name": "Panaikulam",
        "id": 161
      },
      {
        "name": "Paramakudi",
        "id": 129
      },
      {
        "name": "Perundurai",
        "id": 105
      },
      {
        "name": "Perungulam",
        "id": 162
      },
      {
        "name": "Perunthalmanna",
        "id": 75
      },
      {
        "name": "Pollachi",
        "id": 225
      },
      {
        "name": "Pondicherry",
        "id": 88
      },
      {
        "name": "Pudukottai",
        "id": 130
      },
      {
        "name": "Pudur (Ramnad)",
        "id": 220
      },
      {
        "name": "Puduvalasai",
        "id": 163
      },
      {
        "name": "Puliyal",
        "id": 154
      },
      {
        "name": "Puliyangudi",
        "id": 63
      },
      {
        "name": "R.S.Mangalam",
        "id": 131
      },
      {
        "name": "Rajahmundry",
        "id": 253
      },
      {
        "name": "Rajapalayam",
        "id": 61
      },
      {
        "name": "Ramanathapuram",
        "id": 146
      },
      {
        "name": "Ramanattukara",
        "id": 234
      },
      {
        "name": "Rameswaram",
        "id": 155
      },
      {
        "name": "Ramnad",
        "id": 132
      },
      {
        "name": "Ramoji Flim City",
        "id": 201
      },
      {
        "name": "Rasipuram",
        "id": 243
      },
      {
        "name": "Ravulapalem",
        "id": 252
      },
      {
        "name": "Salem",
        "id": 49
      },
      {
        "name": "Salem Bypass",
        "id": 76
      },
      {
        "name": "Sankarankoil",
        "id": 66
      },
      {
        "name": "Sathyamangalam ",
        "id": 137
      },
      {
        "name": "Sattur",
        "id": 103
      },
      {
        "name": "Secunderabad",
        "id": 202
      },
      {
        "name": "Seerkazhi",
        "id": 124
      },
      {
        "name": "Sirumugai",
        "id": 138
      },
      {
        "name": "Sivagangai",
        "id": 133
      },
      {
        "name": "Sivakasi",
        "id": 90
      },
      {
        "name": "Srivilliputhur",
        "id": 60
      },
      {
        "name": "Sullurpeta",
        "id": 203
      },
      {
        "name": "Sulurpeta Bypass",
        "id": 185
      },
      {
        "name": "T.kallupati",
        "id": 211
      },
      {
        "name": "Tada",
        "id": 186
      },
      {
        "name": "Tada Bypass",
        "id": 187
      },
      {
        "name": "Tadepalligudem",
        "id": 250
      },
      {
        "name": "Tanjore",
        "id": 116
      },
      {
        "name": "Tanuku",
        "id": 251
      },
      {
        "name": "Tenkasi",
        "id": 56
      },
      {
        "name": "Tharangambadi",
        "id": 125
      },
      {
        "name": "Theni",
        "id": 235
      },
      {
        "name": "Thiruchenthur ",
        "id": 208
      },
      {
        "name": "Thirukadaiyur",
        "id": 126
      },
      {
        "name": "Thirumangalam",
        "id": 58
      },
      {
        "name": "Thirunagar",
        "id": 228
      },
      {
        "name": "Thirupathur",
        "id": 134
      },
      {
        "name": "Thiruvarur",
        "id": 152
      },
      {
        "name": "Thrissur ",
        "id": 89
      },
      {
        "name": "Thuckalay",
        "id": 172
      },
      {
        "name": "Thuvarankurichy",
        "id": 93
      },
      {
        "name": "Tindivanam",
        "id": 82
      },
      {
        "name": "Tirunelveli",
        "id": 100
      },
      {
        "name": "Tirupathi",
        "id": 231
      },
      {
        "name": "Tirupati (Pilgrimage Tour)",
        "id": 108
      },
      {
        "name": "Tirupur",
        "id": 106
      },
      {
        "name": "Trichy",
        "id": 45
      },
      {
        "name": "Trichy Bypass",
        "id": 221
      },
      {
        "name": "Trivandrum",
        "id": 171
      },
      {
        "name": "Tuni",
        "id": 257
      },
      {
        "name": "Tuticorin",
        "id": 207
      },
      {
        "name": "Udumalpet",
        "id": 226
      },
      {
        "name": "Utchipuli",
        "id": 164
      },
      {
        "name": "Vaitheesvaran Koil",
        "id": 151
      },
      {
        "name": "Valliyur",
        "id": 102
      },
      {
        "name": "Vasudevanallur",
        "id": 62
      },
      {
        "name": "Vedachandur",
        "id": 51
      },
      {
        "name": "Velankanni",
        "id": 96
      },
      {
        "name": "Vellore",
        "id": 227
      },
      {
        "name": "Vijayawada",
        "id": 222
      },
      {
        "name": "Villupuram",
        "id": 80
      },
      {
        "name": "Virudhunagar",
        "id": 91
      },
      {
        "name": "Visakhapatnam (Vizag)",
        "id": 247
      },
      {
        "name": "Visakhapatnam City",
        "id": 264
      },
      {
        "name": "Visakhapatnam Sight Seeing",
        "id": 265
      },
      {
        "name": "Visakhapatnam Tour Packages",
        "id": 266
      },
      {
        "name": "Vizag",
        "id": 254
      },
      {
        "name": "Vizag City Packages",
        "id": 260
      },
      {
        "name": "Vizag Tour Packages",
        "id": 261
      },
      {
        "name": "kayalpattinam",
        "id": 209
      }
    ]
  }
}